<svg width="32" height="32" viewBox="0 0 32 32" fill="none" xmlns="http://www.w3.org/2000/svg">
<path d="M22.016 32H1.28C0.576 32 0 31.424 0 30.72V1.28C0 0.576 0.576 0 1.28 0H22.016C22.72 0 23.296 0.576 23.296 1.28V3.84C23.296 4.544 22.72 5.12 22.016 5.12C21.312 5.12 20.736 4.544 20.736 3.84V2.56H2.56V29.44H20.736V28.16C20.736 27.456 21.312 26.88 22.016 26.88C22.72 26.88 23.296 27.456 23.296 28.16V30.72C23.296 31.424 22.72 32 22.016 32Z" fill="#171321"/>
<path d="M23.1679 20.6079C22.8479 20.6079 22.5279 20.4799 22.2719 20.2239L19.6479 17.5999C19.1359 17.0879 19.1359 16.32 19.6479 15.808C20.1599 15.296 20.9279 15.296 21.4399 15.808L23.1679 17.5359L24.8959 15.808C25.4079 15.296 26.1759 15.296 26.6879 15.808C27.1999 16.32 27.1999 17.0879 26.6879 17.5999L24.0639 20.2239C23.8079 20.5439 23.4879 20.6079 23.1679 20.6079Z" fill="#171321"/>
<path d="M23.1679 20.608C22.4639 20.608 21.8879 20.032 21.8879 19.328V12.608C21.8879 11.904 22.4639 11.328 23.1679 11.328C23.8719 11.328 24.4479 11.904 24.4479 12.608V19.328C24.4479 20.096 23.8719 20.608 23.1679 20.608Z" fill="#171321"/>
<path d="M11.712 17.28H6.08005C5.37605 17.28 4.80005 16.704 4.80005 16C4.80005 15.296 5.37605 14.72 6.08005 14.72H11.648C12.352 14.72 12.928 15.296 12.928 16C12.928 16.704 12.416 17.28 11.712 17.28Z" fill="#171321"/>
<path d="M12.992 12.608H6.08005C5.37605 12.608 4.80005 12.032 4.80005 11.328C4.80005 10.624 5.37605 10.048 6.08005 10.048H12.9281C13.632 10.048 14.208 10.624 14.208 11.328C14.208 12.032 13.696 12.608 12.992 12.608Z" fill="#171321"/>
<path d="M12.9921 21.952H6.01608C5.31208 21.952 4.73608 21.376 4.73608 20.672C4.73608 19.968 5.31208 19.392 6.01608 19.392H12.9281C13.6321 19.392 14.2081 19.968 14.2081 20.672C14.2721 21.376 13.6961 21.952 12.9921 21.952Z" fill="#171321"/>
<path d="M23.1681 24.832C18.3041 24.832 14.3361 20.864 14.3361 16C14.3361 11.136 18.3041 7.16797 23.1681 7.16797C28.0321 7.16797 32.0001 11.136 32.0001 16C32.0001 20.864 28.0321 24.832 23.1681 24.832ZM23.1681 9.72797C19.7121 9.72797 16.8961 12.544 16.8961 16C16.8961 19.456 19.7121 22.272 23.1681 22.272C26.6241 22.272 29.4401 19.456 29.4401 16C29.4401 12.544 26.6241 9.72797 23.1681 9.72797Z" fill="#171321"/>
</svg>
