<svg width="24" height="17" viewBox="0 0 24 17" fill="none" xmlns="http://www.w3.org/2000/svg">
<path d="M2.69095 2.08194H16.8907C18.8274 2.08194 20.4016 3.65622 20.4016 5.59294V13.5041H2.69095V2.08194Z" fill="#E8E7EB" stroke="#171321" stroke-width="0.577459"/>
<path d="M2.40222 13.1634V1.54498H16.6481C18.8829 1.54498 20.6904 3.35243 20.6904 5.5872V13.1634" stroke="#171321" stroke-width="1.15492" stroke-miterlimit="10"/>
<path d="M0.28873 16.1664V13.4522H22.8096V16.1664H0.28873Z" fill="#7759C2" stroke="#171321" stroke-width="0.577459"/>
</svg>
