<svg width="32" height="32" viewBox="0 0 32 32" fill="none" xmlns="http://www.w3.org/2000/svg">
<g clip-path="url(#clip0_1145_6881)">
<path d="M20.7881 5.94159H26.0158V11.1693" stroke="#171321" stroke-width="1.27982" stroke-linecap="round" stroke-linejoin="round"/>
<path d="M11.4917 26.0379H5.90527V20.8099" stroke="#171321" stroke-width="1.27982" stroke-linecap="round" stroke-linejoin="round"/>
<path d="M3.19922 13.9693C4.58974 15.2057 6.38575 15.8887 8.24649 15.8887C10.1072 15.8887 11.9032 15.2057 13.2938 13.9693C11.9032 12.7328 10.1072 12.0498 8.24649 12.0498C6.38575 12.0498 4.58974 12.7328 3.19922 13.9693V13.9693Z" stroke="#171321" stroke-width="1.27982" stroke-linecap="round" stroke-linejoin="round"/>
<path d="M8.24623 9.91764C9.58981 9.91764 10.679 8.82845 10.679 7.48488C10.679 6.14131 9.58981 5.05212 8.24623 5.05212C6.90266 5.05212 5.81348 6.14131 5.81348 7.48488C5.81348 8.82845 6.90266 9.91764 8.24623 9.91764Z" stroke="#171321" stroke-width="1.27982" stroke-linecap="round" stroke-linejoin="round"/>
<path d="M14.7678 12.1839C15.368 11.1787 15.7279 10.0486 15.8196 8.88153C15.9112 7.71446 15.7321 6.54199 15.2961 5.45553C14.8602 4.36906 14.1792 3.39796 13.3063 2.61791C12.4334 1.83787 11.3921 1.26996 10.2636 0.958457C9.13517 0.646955 7.95001 0.600277 6.80055 0.822062C5.65109 1.04385 4.56837 1.5281 3.63681 2.23707C2.70525 2.94605 1.95001 3.86059 1.42996 4.9094C0.90992 5.95821 0.639121 7.11296 0.63868 8.28362C0.63672 9.65713 1.00833 11.0053 1.71372 12.1839" stroke="#171321" stroke-width="1.27982" stroke-linecap="round" stroke-linejoin="round"/>
<path d="M18.7041 29.3687C20.0946 30.6051 21.8906 31.2881 23.7514 31.2881C25.6121 31.2881 27.4081 30.6051 28.7986 29.3687C27.4072 28.1342 25.6115 27.4525 23.7514 27.4525C21.8912 27.4525 20.0956 28.1342 18.7041 29.3687V29.3687Z" stroke="#171321" stroke-width="1.27982" stroke-linecap="round" stroke-linejoin="round"/>
<path d="M23.756 25.317C25.0996 25.317 26.1888 24.2278 26.1888 22.8842C26.1888 21.5407 25.0996 20.4515 23.756 20.4515C22.4124 20.4515 21.3232 21.5407 21.3232 22.8842C21.3232 24.2278 22.4124 25.317 23.756 25.317Z" stroke="#171321" stroke-width="1.27982" stroke-linecap="round" stroke-linejoin="round"/>
<path d="M30.2786 27.5864C30.9676 26.4326 31.3384 25.1167 31.3532 23.7728C31.368 22.429 31.0263 21.1053 30.3629 19.9365C29.6995 18.7677 28.7381 17.7957 27.5767 17.1195C26.4153 16.4432 25.0954 16.087 23.7515 16.087C22.4076 16.087 21.0877 16.4432 19.9263 17.1195C18.7649 17.7957 17.8035 18.7677 17.1402 19.9365C16.4768 21.1053 16.1351 22.429 16.1499 23.7728C16.1647 25.1167 16.5355 26.4326 17.2245 27.5864" stroke="#171321" stroke-width="1.27982" stroke-linecap="round" stroke-linejoin="round"/>
</g>
<defs>
<clipPath id="clip0_1145_6881">
<rect width="31.9954" height="31.9954" fill="white"/>
</clipPath>
</defs>
</svg>
