<svg width="33" height="32" viewBox="0 0 33 32" fill="none" xmlns="http://www.w3.org/2000/svg">
<g clip-path="url(#clip0_7608_14959)">
<path d="M16.9633 20.8002L21.9418 17.1847C22.008 17.1362 22.0573 17.068 22.0826 16.9899C22.1078 16.9118 22.1078 16.8277 22.0826 16.7496L20.3676 11.4735C20.3548 11.4344 20.33 11.4003 20.2967 11.3761C20.2634 11.3519 20.2232 11.3388 20.182 11.3388C20.1408 11.3388 20.1007 11.3519 20.0674 11.3761C20.034 11.4003 20.0092 11.4344 19.9965 11.4735L18.8574 14.993H15.0724L13.9301 11.4735C13.9174 11.4344 13.8925 11.4003 13.8592 11.3761C13.8259 11.3519 13.7857 11.3388 13.7446 11.3388C13.7034 11.3388 13.6632 11.3519 13.6299 11.3761C13.5966 11.4003 13.5717 11.4344 13.559 11.4735L11.844 16.7496C11.818 16.8281 11.8176 16.9129 11.8429 16.9917C11.8682 17.0705 11.9179 17.1392 11.9848 17.1879L16.9633 20.8002Z" stroke="#171321" stroke-width="1.27982" stroke-linecap="round" stroke-linejoin="round"/>
<path d="M7.07605 6.71583L12.0225 14.2923L4.59961 14.2315" stroke="#171321" stroke-width="1.27982" stroke-linecap="round" stroke-linejoin="round"/>
<path d="M6.10285 6.72113C6.93307 6.72113 7.6061 6.04811 7.6061 5.21789C7.6061 4.38767 6.93307 3.71465 6.10285 3.71465C5.27263 3.71465 4.59961 4.38767 4.59961 5.21789C4.59961 6.04811 5.27263 6.72113 6.10285 6.72113Z" stroke="#171321" stroke-width="1.27982" stroke-linecap="round" stroke-linejoin="round"/>
<path d="M3.10188 15.8334C3.9321 15.8334 4.60512 15.1604 4.60512 14.3302C4.60512 13.5 3.9321 12.827 3.10188 12.827C2.27166 12.827 1.59863 13.5 1.59863 14.3302C1.59863 15.1604 2.27166 15.8334 3.10188 15.8334Z" stroke="#171321" stroke-width="1.27982" stroke-linecap="round" stroke-linejoin="round"/>
<path d="M6.10285 28.2925C6.93307 28.2925 7.6061 27.6195 7.6061 26.7892C7.6061 25.959 6.93307 25.286 6.10285 25.286C5.27263 25.286 4.59961 25.959 4.59961 26.7892C4.59961 27.6195 5.27263 28.2925 6.10285 28.2925Z" stroke="#171321" stroke-width="1.27982" stroke-linecap="round" stroke-linejoin="round"/>
<path d="M7.20832 21.2951C8.03854 21.2951 8.71157 20.622 8.71157 19.7918C8.71157 18.9616 8.03854 18.2886 7.20832 18.2886C6.3781 18.2886 5.70508 18.9616 5.70508 19.7918C5.70508 20.622 6.3781 21.2951 7.20832 21.2951Z" stroke="#171321" stroke-width="1.27982" stroke-linecap="round" stroke-linejoin="round"/>
<path d="M7.20312 25.7754L14.0117 18.9476" stroke="#171321" stroke-width="1.27982" stroke-linecap="round" stroke-linejoin="round"/>
<path d="M8.31543 20.9986L10.0687 22.9121L11.5527 21.4249" stroke="#171321" stroke-width="1.27982" stroke-linecap="round" stroke-linejoin="round"/>
<path d="M26.842 6.71583L21.8955 14.2923L29.3184 14.2315" stroke="#171321" stroke-width="1.27982" stroke-linecap="round" stroke-linejoin="round"/>
<path d="M27.8226 6.72113C28.6528 6.72113 29.3258 6.04811 29.3258 5.21789C29.3258 4.38767 28.6528 3.71465 27.8226 3.71465C26.9924 3.71465 26.3193 4.38767 26.3193 5.21789C26.3193 6.04811 26.9924 6.72113 27.8226 6.72113Z" stroke="#171321" stroke-width="1.27982" stroke-linecap="round" stroke-linejoin="round"/>
<path d="M30.8206 15.8334C31.6508 15.8334 32.3239 15.1604 32.3239 14.3302C32.3239 13.5 31.6508 12.827 30.8206 12.827C29.9904 12.827 29.3174 13.5 29.3174 14.3302C29.3174 15.1604 29.9904 15.8334 30.8206 15.8334Z" stroke="#171321" stroke-width="1.27982" stroke-linecap="round" stroke-linejoin="round"/>
<path d="M27.8226 28.2925C28.6528 28.2925 29.3258 27.6195 29.3258 26.7892C29.3258 25.959 28.6528 25.286 27.8226 25.286C26.9924 25.286 26.3193 25.959 26.3193 26.7892C26.3193 27.6195 26.9924 28.2925 27.8226 28.2925Z" stroke="#171321" stroke-width="1.27982" stroke-linecap="round" stroke-linejoin="round"/>
<path d="M26.72 21.2951C27.5503 21.2951 28.2233 20.622 28.2233 19.7918C28.2233 18.9616 27.5503 18.2886 26.72 18.2886C25.8898 18.2886 25.2168 18.9616 25.2168 19.7918C25.2168 20.622 25.8898 21.2951 26.72 21.2951Z" stroke="#171321" stroke-width="1.27982" stroke-linecap="round" stroke-linejoin="round"/>
<path d="M26.7197 25.7754L19.9111 18.9476" stroke="#171321" stroke-width="1.27982" stroke-linecap="round" stroke-linejoin="round"/>
<path d="M25.6152 20.9986L23.8619 22.9121L22.3779 21.4249" stroke="#171321" stroke-width="1.27982" stroke-linecap="round" stroke-linejoin="round"/>
</g>
<defs>
<clipPath id="clip0_7608_14959">
<rect width="31.9954" height="31.9954" fill="white" transform="translate(0.962891 0.00314331)"/>
</clipPath>
</defs>
</svg>
