<svg width="100" height="100" viewBox="0 0 100 100" fill="none" xmlns="http://www.w3.org/2000/svg">
<g clip-path="url(#clip0_173_1150)">
<path d="M50 14.14C53.3524 14.14 56.07 11.4224 56.07 8.07C56.07 4.71763 53.3524 2 50 2C46.6476 2 43.93 4.71763 43.93 8.07C43.93 11.4224 46.6476 14.14 50 14.14Z" fill="#FF675F"/>
<path d="M50 98C53.3524 98 56.07 95.2824 56.07 91.93C56.07 88.5776 53.3524 85.86 50 85.86C46.6476 85.86 43.93 88.5776 43.93 91.93C43.93 95.2824 46.6476 98 50 98Z" fill="#FF675F"/>
<path d="M91.93 56.07C95.2824 56.07 98 53.3524 98 50C98 46.6476 95.2824 43.93 91.93 43.93C88.5776 43.93 85.86 46.6476 85.86 50C85.86 53.3524 88.5776 56.07 91.93 56.07Z" fill="#FCA121"/>
<path d="M8.07 56.07C11.4224 56.07 14.14 53.3524 14.14 50C14.14 46.6476 11.4224 43.93 8.07 43.93C4.71763 43.93 2 46.6476 2 50C2 53.3524 4.71763 56.07 8.07 56.07Z" fill="#FCA121"/>
<path d="M79.65 26.42C83.0024 26.42 85.72 23.7024 85.72 20.35C85.72 16.9976 83.0024 14.28 79.65 14.28C76.2976 14.28 73.58 16.9976 73.58 20.35C73.58 23.7024 76.2976 26.42 79.65 26.42Z" fill="#AC7FFF"/>
<path d="M20.35 85.72C23.7024 85.72 26.42 83.0024 26.42 79.65C26.42 76.2976 23.7024 73.58 20.35 73.58C16.9976 73.58 14.28 76.2976 14.28 79.65C14.28 83.0024 16.9976 85.72 20.35 85.72Z" fill="#AC7FFF"/>
<path d="M79.65 85.72C83.0024 85.72 85.72 83.0024 85.72 79.65C85.72 76.2976 83.0024 73.58 79.65 73.58C76.2976 73.58 73.58 76.2976 73.58 79.65C73.58 83.0024 76.2976 85.72 79.65 85.72Z" fill="#AC7FFF"/>
<path d="M20.35 26.42C23.7024 26.42 26.42 23.7024 26.42 20.35C26.42 16.9976 23.7024 14.28 20.35 14.28C16.9976 14.28 14.28 16.9976 14.28 20.35C14.28 23.7024 16.9976 26.42 20.35 26.42Z" fill="#AC7FFF"/>
<path d="M50 65.89L66.68 53.76C66.9047 53.5946 67.0712 53.3623 67.1557 53.0964C67.2401 52.8305 67.2381 52.5447 67.15 52.28L61.4 34.56C61.3532 34.4305 61.2675 34.3186 61.1548 34.2396C61.0421 34.1605 60.9077 34.118 60.77 34.118C60.6323 34.118 60.498 34.1605 60.3852 34.2396C60.2725 34.3186 60.1869 34.4305 60.14 34.56L56.32 46.34H43.61L39.78 34.56C39.7331 34.4305 39.6475 34.3186 39.5348 34.2396C39.4221 34.1605 39.2877 34.118 39.15 34.118C39.0123 34.118 38.878 34.1605 38.7652 34.2396C38.6525 34.3186 38.5669 34.4305 38.52 34.56L32.77 52.28C32.6819 52.5447 32.6799 52.8305 32.7644 53.0964C32.8488 53.3623 33.0153 53.5946 33.24 53.76L50 65.89Z" fill="#FC6D26"/>
<path d="M50 67.89C49.5798 67.8894 49.1704 67.7565 48.83 67.51L32.07 55.38C31.5025 54.9685 31.0798 54.388 30.8624 53.7215C30.645 53.0551 30.6442 52.337 30.86 51.67L36.62 34C36.7896 33.4612 37.1283 32.9913 37.5857 32.6599C38.0432 32.3286 38.5952 32.1533 39.16 32.16C39.7187 32.163 40.2624 32.3412 40.7145 32.6695C41.1665 32.9978 41.5042 33.4597 41.68 33.99L45.06 44.39H54.86L58.24 34C58.4122 33.4686 58.7473 33.0049 59.1978 32.6746C59.6484 32.3444 60.1914 32.1643 60.75 32.16C61.3066 32.1601 61.8492 32.3348 62.3012 32.6595C62.7533 32.9842 63.0921 33.4426 63.27 33.97L69.03 51.72C69.2509 52.3841 69.2536 53.1014 69.0377 53.7671C68.8218 54.4328 68.3986 55.012 67.83 55.42L51.14 67.51C50.8079 67.7505 50.41 67.8832 50 67.89ZM34.82 52.43L50 63.42L65.14 52.42L60.77 39.11L58.22 47C58.091 47.4029 57.8376 47.7544 57.4962 48.0042C57.1548 48.2539 56.743 48.389 56.32 48.39H43.61C43.187 48.389 42.7752 48.2539 42.4338 48.0042C42.0924 47.7544 41.839 47.4029 41.71 47L39.15 39.1L34.82 52.43Z" fill="#380D75"/>
<path d="M50 16.14C48.4039 16.14 46.8436 15.6667 45.5165 14.78C44.1894 13.8932 43.1551 12.6329 42.5443 11.1583C41.9335 9.68366 41.7737 8.06105 42.0851 6.49563C42.3964 4.9302 43.165 3.49226 44.2936 2.36365C45.4223 1.23504 46.8602 0.466449 48.4256 0.155066C49.991 -0.156316 51.6137 0.00349659 53.0883 0.614296C54.5629 1.2251 55.8232 2.25945 56.71 3.58655C57.5967 4.91366 58.07 6.47391 58.07 8.07C58.0674 10.2095 57.2163 12.2606 55.7034 13.7734C54.1906 15.2863 52.1395 16.1374 50 16.14ZM50 4C49.195 4 48.4081 4.23871 47.7388 4.68592C47.0695 5.13314 46.5479 5.76879 46.2398 6.51248C45.9318 7.25618 45.8512 8.07452 46.0082 8.86402C46.1652 9.65352 46.5529 10.3787 47.1221 10.9479C47.6913 11.5171 48.4165 11.9048 49.206 12.0618C49.9955 12.2188 50.8138 12.1382 51.5575 11.8302C52.3012 11.5221 52.9369 11.0005 53.3841 10.3312C53.8313 9.66187 54.07 8.87497 54.07 8.07C54.0674 6.99138 53.6377 5.9577 52.875 5.195C52.1123 4.43229 51.0786 4.00264 50 4Z" fill="#380D75"/>
<path d="M50 100C48.4039 100 46.8436 99.5267 45.5165 98.64C44.1894 97.7532 43.1551 96.4928 42.5443 95.0182C41.9335 93.5436 41.7737 91.921 42.0851 90.3556C42.3964 88.7902 43.165 87.3522 44.2936 86.2236C45.4223 85.095 46.8602 84.3264 48.4256 84.0151C49.991 83.7037 51.6137 83.8635 53.0883 84.4743C54.5629 85.0851 55.8232 86.1194 56.71 87.4465C57.5967 88.7736 58.07 90.3339 58.07 91.93C58.0674 94.0695 57.2163 96.1206 55.7034 97.6334C54.1906 99.1463 52.1395 99.9973 50 100ZM50 87.86C49.195 87.86 48.4081 88.0987 47.7388 88.5459C47.0695 88.9931 46.5479 89.6288 46.2398 90.3725C45.9318 91.1162 45.8512 91.9345 46.0082 92.724C46.1652 93.5135 46.5529 94.2387 47.1221 94.8079C47.6913 95.3771 48.4165 95.7647 49.206 95.9218C49.9955 96.0788 50.8138 95.9982 51.5575 95.6902C52.3012 95.3821 52.9369 94.8605 53.3841 94.1912C53.8313 93.5219 54.07 92.735 54.07 91.93C54.0674 90.8514 53.6377 89.8177 52.875 89.055C52.1123 88.2923 51.0786 87.8626 50 87.86Z" fill="#380D75"/>
<path d="M91.93 58.07C90.3339 58.07 88.7736 57.5967 87.4465 56.71C86.1194 55.8232 85.0851 54.5629 84.4743 53.0883C83.8635 51.6137 83.7037 49.991 84.0151 48.4256C84.3264 46.8602 85.095 45.4223 86.2236 44.2936C87.3522 43.165 88.7902 42.3964 90.3556 42.0851C91.921 41.7737 93.5436 41.9335 95.0182 42.5443C96.4928 43.1551 97.7532 44.1894 98.64 45.5165C99.5267 46.8436 100 48.4039 100 50C99.9973 52.1395 99.1463 54.1906 97.6334 55.7034C96.1206 57.2163 94.0695 58.0674 91.93 58.07ZM91.93 45.93C91.125 45.93 90.3381 46.1687 89.6688 46.6159C88.9995 47.0631 88.4778 47.6988 88.1698 48.4425C87.8618 49.1862 87.7812 50.0045 87.9382 50.794C88.0952 51.5835 88.4829 52.3087 89.0521 52.8779C89.6213 53.4471 90.3465 53.8347 91.136 53.9918C91.9255 54.1488 92.7438 54.0682 93.4875 53.7602C94.2312 53.4521 94.8669 52.9305 95.3141 52.2612C95.7613 51.5919 96 50.805 96 50C95.9974 48.9214 95.5677 47.8877 94.805 47.125C94.0423 46.3623 93.0086 45.9326 91.93 45.93Z" fill="#380D75"/>
<path d="M8.07 58.07C6.47391 58.07 4.91366 57.5967 3.58655 56.71C2.25945 55.8232 1.2251 54.5629 0.614296 53.0883C0.00349659 51.6137 -0.156316 49.991 0.155066 48.4256C0.466449 46.8602 1.23504 45.4223 2.36365 44.2936C3.49226 43.165 4.9302 42.3964 6.49563 42.0851C8.06105 41.7737 9.68366 41.9335 11.1583 42.5443C12.6329 43.1551 13.8932 44.1894 14.78 45.5165C15.6667 46.8436 16.14 48.4039 16.14 50C16.1374 52.1395 15.2863 54.1906 13.7734 55.7034C12.2606 57.2163 10.2095 58.0674 8.07 58.07ZM8.07 45.93C7.26503 45.93 6.47814 46.1687 5.80883 46.6159C5.13952 47.0631 4.61786 47.6988 4.30981 48.4425C4.00177 49.1862 3.92117 50.0045 4.07821 50.794C4.23525 51.5835 4.62288 52.3087 5.19208 52.8779C5.76128 53.4471 6.48648 53.8347 7.27599 53.9918C8.06549 54.1488 8.88383 54.0682 9.62753 53.7602C10.3712 53.4521 11.0069 52.9305 11.4541 52.2612C11.9013 51.5919 12.14 50.805 12.14 50C12.1374 48.9214 11.7077 47.8877 10.945 47.125C10.1823 46.3623 9.14862 45.9326 8.07 45.93Z" fill="#380D75"/>
<path d="M79.65 28.42C77.7831 28.4183 75.9744 27.7694 74.5323 26.5837C73.0902 25.3981 72.1037 23.7491 71.741 21.9177C71.3784 20.0864 71.6619 18.1859 72.5432 16.5401C73.4246 14.8943 74.8494 13.605 76.5748 12.8919C78.3002 12.1788 80.2194 12.086 82.0056 12.6292C83.7917 13.1725 85.3343 14.3182 86.3704 15.8713C87.4065 17.4243 87.8721 19.2886 87.6879 21.1464C87.5037 23.0042 86.681 24.7407 85.36 26.06C84.6102 26.8096 83.7199 27.4039 82.7401 27.8089C81.7603 28.2138 80.7102 28.4215 79.65 28.42ZM79.65 16.28C78.9863 16.2891 78.3348 16.4603 77.7524 16.7788C77.1701 17.0974 76.6744 17.5535 76.3087 18.1075C75.9431 18.6615 75.7184 19.2966 75.6545 19.9573C75.5905 20.618 75.6891 21.2843 75.9416 21.8982C76.1942 22.5121 76.5931 23.0548 77.1035 23.4792C77.6139 23.9036 78.2204 24.1967 78.8701 24.333C79.5197 24.4692 80.1929 24.4445 80.8308 24.261C81.4687 24.0774 82.0521 23.7407 82.53 23.28C83.2897 22.514 83.7159 21.4788 83.7159 20.4C83.7159 19.3212 83.2897 18.286 82.53 17.52C82.1582 17.13 81.7115 16.8191 81.2166 16.606C80.7217 16.393 80.1888 16.2821 79.65 16.28Z" fill="#380D75"/>
<path d="M20.35 87.71C18.5016 87.6993 16.7139 87.0489 15.2908 85.8693C13.8677 84.6897 12.897 83.0537 12.5437 81.2393C12.1903 79.425 12.4762 77.5442 13.3527 75.9168C14.2292 74.2894 15.6421 73.0157 17.3515 72.3122C19.0608 71.6087 20.961 71.5188 22.7291 72.0579C24.4972 72.5969 26.0241 73.7316 27.0502 75.269C28.0764 76.8065 28.5384 78.6518 28.3579 80.4914C28.1774 82.331 27.3654 84.0514 26.06 85.36C25.3094 86.1078 24.4187 86.7003 23.439 87.1035C22.4592 87.5067 21.4095 87.7128 20.35 87.71ZM20.35 75.58C19.2706 75.5811 18.2354 76.0088 17.47 76.77C16.7079 77.5347 16.28 78.5704 16.28 79.65C16.28 80.7297 16.7079 81.7653 17.47 82.53C18.236 83.2897 19.2712 83.7159 20.35 83.7159C21.4288 83.7159 22.464 83.2897 23.23 82.53C23.9921 81.7653 24.42 80.7297 24.42 79.65C24.42 78.5704 23.9921 77.5347 23.23 76.77C22.4646 76.0088 21.4294 75.5811 20.35 75.58Z" fill="#380D75"/>
<path d="M79.65 87.72C78.5893 87.7248 77.5383 87.5186 76.558 87.1135C75.5777 86.7083 74.6878 86.1123 73.94 85.36C72.6139 84.0383 71.7873 82.2976 71.6011 80.4346C71.4149 78.5716 71.8806 76.7017 72.9189 75.1436C73.9572 73.5856 75.5038 72.436 77.2949 71.8907C79.086 71.3454 81.0108 71.4383 82.7411 72.1534C84.4714 72.8686 85.9001 74.1618 86.7836 75.8125C87.6671 77.4632 87.9507 79.3693 87.5861 81.2057C87.2214 83.0421 86.2311 84.6952 84.7839 85.8831C83.3367 87.071 81.5223 87.7202 79.65 87.72ZM79.65 75.58C78.834 75.5689 78.0335 75.8033 77.3524 76.2529C76.6713 76.7024 76.1411 77.3464 75.8306 78.1011C75.5201 78.8558 75.4437 79.6864 75.6112 80.4851C75.7787 81.2838 76.1824 82.0137 76.77 82.58C77.5348 83.3421 78.5704 83.77 79.65 83.77C80.7297 83.77 81.7653 83.3421 82.53 82.58C83.2897 81.814 83.7159 80.7788 83.7159 79.7C83.7159 78.6212 83.2897 77.586 82.53 76.82C82.1582 76.43 81.7115 76.1191 81.2166 75.906C80.7217 75.693 80.1888 75.5821 79.65 75.58Z" fill="#380D75"/>
<path d="M20.35 28.42C18.4857 28.4174 16.68 27.7685 15.2404 26.584C13.8008 25.3995 12.8163 23.7526 12.4546 21.9238C12.0929 20.0949 12.3764 18.1972 13.2567 16.5539C14.137 14.9106 15.5598 13.6233 17.2828 12.9112C19.0057 12.1991 20.9222 12.1062 22.7058 12.6485C24.4895 13.1908 26.03 14.3346 27.0651 15.8851C28.1001 17.4357 28.5657 19.2971 28.3824 21.1523C28.1991 23.0076 27.3784 24.7419 26.06 26.06C25.3099 26.8091 24.4195 27.4032 23.4398 27.8081C22.4601 28.213 21.4101 28.421 20.35 28.42ZM20.35 16.28C19.2706 16.2811 18.2354 16.7088 17.47 17.47C16.7079 18.2347 16.28 19.2704 16.28 20.35C16.28 21.4296 16.7079 22.4653 17.47 23.23C18.236 23.9897 19.2712 24.4159 20.35 24.4159C21.4288 24.4159 22.464 23.9897 23.23 23.23C23.9921 22.4653 24.42 21.4296 24.42 20.35C24.42 19.2704 23.9921 18.2347 23.23 17.47C22.4646 16.7088 21.4294 16.2811 20.35 16.28Z" fill="#380D75"/>
<path d="M25.62 17.85C25.1985 17.8473 24.7885 17.7115 24.4488 17.4619C24.1091 17.2123 23.8568 16.8618 23.7282 16.4604C23.5996 16.0589 23.6011 15.6271 23.7325 15.2265C23.8639 14.826 24.1185 14.4772 24.46 14.23C29.8218 10.4081 35.9729 7.83826 42.46 6.71C42.7223 6.6567 42.9926 6.65658 43.2549 6.70965C43.5172 6.76271 43.7662 6.86788 43.9871 7.01893C44.208 7.16997 44.3964 7.36382 44.541 7.58899C44.6857 7.81416 44.7837 8.06606 44.8292 8.32979C44.8747 8.59351 44.8668 8.86369 44.806 9.12432C44.7452 9.38494 44.6327 9.63071 44.4752 9.84707C44.3177 10.0634 44.1184 10.246 43.889 10.3839C43.6597 10.5218 43.405 10.6123 43.14 10.65C37.2452 11.6558 31.6571 13.9916 26.8 17.48C26.4556 17.7249 26.0426 17.8544 25.62 17.85Z" fill="#380D75"/>
<path d="M8.62001 44.92H8.29001C8.03046 44.8764 7.78207 44.782 7.55908 44.6422C7.33608 44.5024 7.14287 44.32 6.99051 44.1054C6.83815 43.8908 6.72965 43.6483 6.67122 43.3916C6.61279 43.135 6.60558 42.8694 6.65001 42.61C7.21305 39.2917 8.15938 36.05 9.47001 32.95C9.69009 32.4822 10.0828 32.1177 10.5657 31.9331C11.0487 31.7485 11.5843 31.7581 12.0604 31.9599C12.5364 32.1617 12.9158 32.54 13.1189 33.0155C13.3221 33.4909 13.3332 34.0265 13.15 34.51C11.9684 37.3273 11.1096 40.2694 10.59 43.28C10.5057 43.7408 10.2623 44.1574 9.90228 44.4571C9.54226 44.7568 9.08846 44.9206 8.62001 44.92Z" fill="#380D75"/>
<path d="M15.93 76.51C15.6119 76.5112 15.2981 76.4366 15.0146 76.2922C14.7311 76.1479 14.4861 75.938 14.3 75.68C12.0742 72.5948 10.259 69.2333 8.90001 65.68C8.79001 65.432 8.73162 65.1642 8.72838 64.8929C8.72515 64.6217 8.77713 64.3526 8.88118 64.102C8.98523 63.8515 9.13916 63.6247 9.33362 63.4355C9.52807 63.2464 9.75898 63.0987 10.0123 63.0016C10.2656 62.9045 10.536 62.8599 10.8071 62.8706C11.0782 62.8813 11.3443 62.9471 11.5891 63.0639C11.834 63.1806 12.0526 63.346 12.2315 63.5499C12.4104 63.7538 12.546 63.992 12.63 64.25C13.8717 67.4855 15.5253 70.5474 17.55 73.36C17.8599 73.7898 17.9865 74.325 17.9022 74.8481C17.8178 75.3712 17.5293 75.8394 17.1 76.15C16.7555 76.3858 16.3475 76.5113 15.93 76.51Z" fill="#380D75"/>
<path d="M43.21 93.4H42.89C36.371 92.3251 30.1778 89.7958 24.77 86C24.5457 85.853 24.3533 85.6624 24.2042 85.4395C24.0551 85.2166 23.9524 84.9661 23.902 84.7027C23.8517 84.4393 23.8549 84.1685 23.9113 83.9063C23.9678 83.6442 24.0764 83.3961 24.2306 83.1768C24.3849 82.9575 24.5817 82.7714 24.8093 82.6296C25.037 82.4879 25.2908 82.3934 25.5556 82.3517C25.8205 82.31 26.0911 82.322 26.3512 82.387C26.6114 82.452 26.8558 82.5687 27.07 82.73C31.9744 86.1867 37.6048 88.4751 43.53 89.42C44.0604 89.4624 44.5523 89.7139 44.8973 90.1189C45.2424 90.524 45.4124 91.0496 45.37 91.58C45.3276 92.1104 45.0762 92.6023 44.6711 92.9474C44.266 93.2924 43.7404 93.4624 43.21 93.42V93.4Z" fill="#380D75"/>
<path d="M57.33 93.29C56.7996 93.3364 56.2724 93.1702 55.8645 92.828C55.4566 92.4857 55.2014 91.9954 55.155 91.465C55.1086 90.9346 55.2748 90.4074 55.617 89.9995C55.9593 89.5916 56.4496 89.3364 56.98 89.29C63.1069 88.2082 68.897 85.712 73.89 82C74.0986 81.8256 74.3405 81.6956 74.601 81.6179C74.8615 81.5402 75.1352 81.5165 75.4052 81.5481C75.6752 81.5797 75.9359 81.666 76.1715 81.8018C76.407 81.9375 76.6124 82.1199 76.7751 82.3377C76.9377 82.5555 77.0543 82.8042 77.1176 83.0686C77.181 83.333 77.1897 83.6075 77.1434 83.8754C77.0971 84.1433 76.9966 84.3989 76.8482 84.6266C76.6997 84.8544 76.5064 85.0495 76.28 85.2C70.7937 89.3048 64.4245 92.0717 57.68 93.28C57.5638 93.2936 57.4467 93.2969 57.33 93.29Z" fill="#380D75"/>
<path d="M84 76.56C83.5804 76.5554 83.1722 76.4229 82.83 76.18C82.4007 75.8694 82.1122 75.4012 82.0278 74.8781C81.9435 74.355 82.0701 73.8198 82.38 73.39C84.6227 70.2918 86.4076 66.8869 87.68 63.28C87.8564 62.7787 88.2246 62.3681 88.7038 62.1383C89.1829 61.9086 89.7337 61.8786 90.235 62.055C90.7362 62.2314 91.1469 62.5996 91.3766 63.0788C91.6064 63.5579 91.6364 64.1087 91.46 64.61C90.0573 68.5759 88.0941 72.3206 85.63 75.73C85.4439 75.988 85.1989 76.1979 84.9154 76.3422C84.6319 76.4866 84.3181 76.5612 84 76.56Z" fill="#380D75"/>
<path d="M91.32 45.05C90.8421 45.0565 90.3776 44.8917 90.0108 44.5854C89.6439 44.279 89.3988 43.8514 89.32 43.38C88.704 39.6423 87.5557 36.012 85.91 32.6C85.787 32.3626 85.7129 32.103 85.6919 31.8365C85.671 31.57 85.7037 31.302 85.7881 31.0484C85.8725 30.7947 86.0069 30.5606 86.1834 30.3597C86.3598 30.1589 86.5748 29.9955 86.8155 29.8792C87.0561 29.7628 87.3177 29.6959 87.5847 29.6824C87.8517 29.6689 88.1187 29.7091 88.3699 29.8005C88.6211 29.8919 88.8514 30.0328 89.0472 30.2148C89.2431 30.3968 89.4004 30.6162 89.51 30.86C91.33 34.6125 92.6029 38.6064 93.29 42.72C93.3711 43.2393 93.2445 43.7696 92.9376 44.1963C92.6307 44.623 92.1681 44.9117 91.65 45L91.32 45.05Z" fill="#380D75"/>
<path d="M74.28 17.84C73.8643 17.8402 73.4588 17.7109 73.12 17.47C68.1979 13.9678 62.5466 11.6258 56.59 10.62C56.0662 10.5325 55.5986 10.2405 55.2901 9.80819C54.9816 9.37592 54.8575 8.8388 54.945 8.315C55.0325 7.79119 55.3245 7.32361 55.7568 7.01512C56.1891 6.70662 56.7262 6.58248 57.25 6.67C63.8079 7.77781 70.03 10.3555 75.45 14.21C75.7964 14.4563 76.0554 14.8066 76.1893 15.21C76.3232 15.6134 76.3251 16.049 76.1947 16.4536C76.0643 16.8581 75.8084 17.2106 75.4641 17.4599C75.1198 17.7092 74.705 17.8424 74.28 17.84Z" fill="#380D75"/>
</g>
<defs>
<clipPath id="clip0_173_1150">
<rect width="100" height="100" fill="white"/>
</clipPath>
</defs>
</svg>
