<svg width="24" height="29" viewBox="0 0 24 29" fill="none" xmlns="http://www.w3.org/2000/svg">
<g clip-path="url(#clip0_173_1015)">
<path d="M12.0114 27.6888C15.7685 26.3454 20.5503 22.7249 21.962 19.7875C23.9658 15.6433 22.9867 12.5693 23.2372 4.73624C23.2372 4.73624 16.8842 5.9203 11.9886 0.56926C7.38899 5.21442 0.762805 4.75901 0.762805 4.75901C1.01328 12.5693 0.0569227 15.666 2.03795 19.8102C3.47248 22.7249 8.25427 26.3681 12.0114 27.6888Z" fill="white"/>
<path d="M23.26 4.69071C23.26 4.69071 16.907 5.87477 12.0114 0.523727C7.38899 5.16889 0.762805 4.69071 0.762805 4.69071C1.01328 12.501 0.056923 15.5977 2.03795 19.7419C3.44971 22.6793 8.25426 26.2998 11.9886 27.6433C15.7457 26.2998 20.5275 22.6793 21.9393 19.7419C23.9658 15.5977 23.0095 12.5237 23.26 4.69071ZM19.8444 18.7856C18.8653 20.8121 15.4269 23.6129 12.3074 25.0702C12.0569 25.1841 11.7837 25.1841 11.5332 25.0702C8.41366 23.6129 4.97533 20.8121 3.9962 18.7856C2.83491 16.3947 2.88045 14.3909 2.94876 10.7476C2.97153 9.81405 2.9943 8.83492 2.9943 7.74194C2.9943 7.26376 3.33586 6.8539 3.81404 6.78559C5.88614 6.48957 8.6869 5.76092 11.2827 3.98483C11.6243 3.75712 12.0569 3.75712 12.3985 4.0076C15.0854 6.03416 17.9089 6.76282 20.0038 6.99052C20.482 7.03606 20.8691 7.44593 20.8691 7.94688C20.8691 8.94877 20.8918 9.88236 20.9146 10.7476C20.9601 14.3909 21.0057 16.3719 19.8444 18.7856Z" fill="#A989F5"/>
<path d="M16.7248 12.2277H7.13849V19.1271H16.7248V17.7154V12.2277Z" fill="#FC6D26"/>
<path d="M12.0114 28.1442C11.9431 28.1442 11.8975 28.1442 11.852 28.1214C8.25428 26.8235 3.17649 23.1803 1.65087 19.9924C0.216335 17.0095 0.261876 14.5047 0.330187 10.7249C0.352957 9.03985 0.398498 7.12714 0.330187 4.75902C0.330187 4.6224 0.375727 4.50854 0.466809 4.41746C0.55789 4.32638 0.694513 4.28084 0.808365 4.28084C0.876676 4.28084 7.27516 4.66794 11.6926 0.25048C11.8748 0.0683164 12.1936 0.0910868 12.353 0.27325C17.0209 5.35105 23.1006 4.30361 23.1689 4.30361C23.3055 4.28084 23.4421 4.32638 23.556 4.41746C23.6698 4.50854 23.7154 4.64517 23.7154 4.78179C23.6471 7.14991 23.6698 9.06262 23.7154 10.7476C23.7837 14.5275 23.8292 17.0323 22.3947 20.0152C20.8691 23.203 15.7913 26.8691 12.1936 28.1442C12.1253 28.1442 12.0569 28.1442 12.0114 28.1442ZM1.241 5.21443C1.30931 7.37761 1.26377 9.1537 1.241 10.7476C1.17269 14.5275 1.12715 16.8046 2.4706 19.5825C3.74575 22.2467 8.18597 25.7761 12.0114 27.2106C15.8368 25.7989 20.2771 22.2695 21.5522 19.5825C22.8956 16.8046 22.8501 14.5275 22.7818 10.7476C22.759 9.17648 22.7135 7.42315 22.7818 5.25997C21.1423 5.41936 16.1556 5.48767 11.9886 1.20684C8.02658 4.96395 2.8577 5.2372 1.241 5.21443Z" fill="#171321"/>
<path d="M12.0114 17.4649C11.761 17.4649 11.556 17.26 11.556 17.0095V15.1651C11.556 14.9146 11.761 14.7097 12.0114 14.7097C12.2619 14.7097 12.4668 14.9146 12.4668 15.1651V17.0095C12.4668 17.26 12.2619 17.4649 12.0114 17.4649Z" fill="#171321"/>
<path d="M12.0114 16.0531C11.5332 16.0531 11.1461 15.6661 11.1461 15.1879C11.1461 14.7097 11.5332 14.3226 12.0114 14.3226C12.4896 14.3226 12.8767 14.7097 12.8767 15.1879C12.8767 15.6661 12.4896 16.0531 12.0114 16.0531ZM12.0114 15.1423C11.9886 15.1423 11.9659 15.1651 11.9659 15.1879C11.9659 15.2334 12.0342 15.2334 12.0342 15.1879C12.0569 15.1423 12.0342 15.1423 12.0114 15.1423Z" fill="#171321"/>
<path d="M15.3131 12.2277C15.0626 12.2277 14.8577 12.0228 14.8577 11.7723V10.2695C14.8577 8.6983 13.5825 7.42316 12.0114 7.42316C10.4402 7.42316 9.16509 8.6983 9.16509 10.2695V11.7723C9.16509 12.0228 8.96015 12.2277 8.70968 12.2277C8.45921 12.2277 8.25427 12.0228 8.25427 11.7723V10.2695C8.25427 8.19735 9.93928 6.51234 12.0114 6.51234C14.0835 6.51234 15.7685 8.19735 15.7685 10.2695V11.7723C15.7685 12.0228 15.5636 12.2277 15.3131 12.2277Z" fill="#171321"/>
<path d="M16.7249 19.5826H7.29794C7.04746 19.5826 6.84253 19.3776 6.84253 19.1271V12.296C6.84253 12.0456 7.04746 11.8406 7.29794 11.8406H16.7249C16.9754 11.8406 17.1803 12.0456 17.1803 12.296V19.1271C17.1803 19.3776 16.9754 19.5826 16.7249 19.5826ZM7.75334 18.6717H16.2695V12.7514H7.75334V18.6717Z" fill="#171321"/>
</g>
<defs>
<clipPath id="clip0_173_1015">
<rect width="24" height="28.2353" fill="white"/>
</clipPath>
</defs>
</svg>
