<svg width="35" height="35" viewBox="0 0 35 35" fill="none" xmlns="http://www.w3.org/2000/svg">
<path d="M17.5 35C27.165 35 35 27.165 35 17.5C35 7.83502 27.165 0 17.5 0C7.83502 0 0 7.83502 0 17.5C0 27.165 7.83502 35 17.5 35Z" fill="#FCA121"/>
<path fill-rule="evenodd" clip-rule="evenodd" d="M26.0114 15.2306H27.634C28.0103 15.2306 28.3394 15.5601 28.3394 15.9364L28.3396 19.0168C28.3396 19.4165 28.0103 19.7223 27.634 19.7223H26.0114C25.8233 20.4043 25.5411 21.0628 25.2119 21.6507L26.3642 22.803C26.6464 23.0852 26.6464 23.5554 26.3642 23.8141L24.1773 26.001C23.8951 26.2832 23.4483 26.2832 23.1662 26.001L22.0375 24.8723C21.4259 25.225 20.7909 25.4837 20.109 25.6718V27.2945C20.109 27.6942 19.8033 28 19.4035 28H16.2993C15.8995 28 15.5938 27.6942 15.5938 27.2945V25.6718C14.9117 25.4837 14.2533 25.225 13.6654 24.8958L12.513 26.0481C12.2309 26.3303 11.7841 26.3303 11.5019 26.0481L9.31502 23.8612C9.03287 23.5791 9.03287 23.1088 9.31502 22.8501L10.3027 21.8624C10.5143 22.1918 10.8201 22.4503 11.1727 22.615C11.4549 22.7561 11.7841 22.8266 12.1133 22.8266C12.5836 22.8266 13.0539 22.6619 13.4302 22.3798L15.241 20.9924C15.9465 21.5332 16.84 21.8624 17.8042 21.8624C20.2264 21.8624 22.1547 19.9104 22.1547 17.5115C22.1547 15.1129 20.2029 13.161 17.8042 13.161C16.84 13.161 15.9699 13.4903 15.241 14.0311L13.4302 12.6437C13.0539 12.3615 12.5836 12.1968 12.1133 12.1968C11.7841 12.1968 11.4549 12.291 11.1727 12.4321C10.7966 12.6202 10.4908 12.8789 10.3027 13.2081L9.29159 12.197C9.0329 11.9148 9.0329 11.4446 9.29159 11.1859L11.4785 8.99895C11.7607 8.71681 12.2075 8.71681 12.4896 8.99895L13.6183 10.1277C14.2299 9.77503 14.8649 9.51633 15.5467 9.32818V7.70553C15.5467 7.30576 15.8525 7 16.2523 7H19.3799C19.7797 7 20.0854 7.30577 20.0854 7.70553V9.35178C20.7675 9.53991 21.426 9.7986 22.0139 10.1278L23.1662 8.97548C23.4483 8.69334 23.8952 8.69334 24.1773 8.97548L26.3642 11.1624C26.6229 11.4445 26.6229 11.8914 26.3642 12.1735L25.2119 13.3258C25.5645 13.9137 25.8232 14.5722 26.0114 15.2306ZM11.8317 21.2508C11.6201 21.1332 11.4791 20.8981 11.4791 20.6629L11.4792 19.2755H6.54083C6.23523 19.2755 6 19.0168 6 18.7347V16.336C6 16.0304 6.25869 15.7952 6.54083 15.7952H11.4792V14.3607C11.4792 14.102 11.6203 13.8904 11.8319 13.7728C11.9259 13.7257 12.02 13.7023 12.114 13.7023C12.2551 13.7023 12.3962 13.7493 12.5138 13.8433L16.6289 16.9945C16.7936 17.1121 16.8876 17.3002 16.8876 17.5118C16.8876 17.7234 16.7936 17.9116 16.6289 18.0292L12.5136 21.1803C12.3257 21.3448 12.0433 21.3684 11.8317 21.2508Z" fill="white"/>
</svg>
