<svg width="32" height="32" viewBox="0 0 32 32" fill="none" xmlns="http://www.w3.org/2000/svg">
<g clip-path="url(#clip0_7994_15876)">
<path d="M14.2377 27.8808C21.76 27.8808 27.8581 21.7827 27.8581 14.2603C27.8581 6.73797 21.76 0.639893 14.2377 0.639893C6.71533 0.639893 0.617249 6.73797 0.617249 14.2603C0.617249 21.7827 6.71533 27.8808 14.2377 27.8808Z" stroke="#171321" stroke-width="1.27982" stroke-linecap="round" stroke-linejoin="round"/>
<path d="M25.8002 22.4609L29.9404 25.3085C30.3398 25.5837 30.674 25.9431 30.9194 26.3615C31.1649 26.7798 31.3156 27.2468 31.3611 27.7297C31.4065 28.2126 31.3456 28.6995 31.1825 29.1563C31.0194 29.6131 30.7581 30.0285 30.4171 30.3734V30.3734C30.0743 30.7189 29.6597 30.9848 29.2027 31.1521C28.7456 31.3195 28.2573 31.3843 27.7725 31.3418C27.2876 31.2994 26.818 31.1508 26.397 30.9066C25.976 30.6623 25.6138 30.3285 25.3363 29.9287L23.5477 27.2922" stroke="#171321" stroke-width="1.27982" stroke-linecap="round" stroke-linejoin="round"/>
<path d="M9.05322 16.8745L6.4104 14.2285L9.05322 11.5857" stroke="#171321" stroke-width="1.27982" stroke-linecap="round" stroke-linejoin="round"/>
<path d="M19.4205 11.5857L22.0665 14.2285L19.4205 16.8745" stroke="#171321" stroke-width="1.27982" stroke-linecap="round" stroke-linejoin="round"/>
<path d="M15.62 10.1875L12.8556 18.3335" stroke="#171321" stroke-width="1.27982" stroke-linecap="round" stroke-linejoin="round"/>
</g>
<defs>
<clipPath id="clip0_7994_15876">
<rect width="31.9954" height="31.9954" fill="white"/>
</clipPath>
</defs>
</svg>
