<svg width="32" height="32" viewBox="0 0 32 32" fill="none" xmlns="http://www.w3.org/2000/svg">
<g clip-path="url(#clip0_1145_6808)">
<path d="M29.6457 1.70215H2.34723C1.40362 1.70215 0.638672 2.46709 0.638672 3.4107V21.5649C0.638672 22.5085 1.40362 23.2734 2.34723 23.2734H29.6457C30.5893 23.2734 31.3542 22.5085 31.3542 21.5649V3.4107C31.3542 2.46709 30.5893 1.70215 29.6457 1.70215Z" stroke="#171321" stroke-width="1.27982" stroke-linecap="round" stroke-linejoin="round"/>
<path d="M30.9671 18.7334H0.638672" stroke="#171321" stroke-width="1.27982" stroke-linecap="round" stroke-linejoin="round"/>
<path d="M19.9607 25.5387V27.5064H12.0322V23.2734" stroke="#171321" stroke-width="1.27982" stroke-linecap="round" stroke-linejoin="round"/>
<path d="M10.4741 27.5161H21.5189C22.0298 27.5161 22.5201 27.7177 22.8832 28.0772C23.2462 28.4367 23.4527 28.9249 23.4578 29.4358V30.2805H8.53516V29.4358C8.54021 28.9249 8.74672 28.4367 9.1098 28.0772C9.47287 27.7177 9.96315 27.5161 10.4741 27.5161V27.5161Z" stroke="#171321" stroke-width="1.27982" stroke-linecap="round" stroke-linejoin="round"/>
<path d="M3.87305 10.0947H28.1191" stroke="#171321" stroke-width="1.27982" stroke-linecap="round" stroke-linejoin="round"/>
<path d="M3.87305 16.0873V5.90957C3.87305 5.655 3.97418 5.41085 4.15418 5.23084C4.33419 5.05084 4.57834 4.94971 4.83291 4.94971H27.1497C27.4043 4.94971 27.6484 5.05084 27.8284 5.23084C28.0084 5.41085 28.1095 5.655 28.1095 5.90957V16.0873" stroke="#171321" stroke-width="1.27982" stroke-linecap="round" stroke-linejoin="round"/>
<path d="M19.9149 15.6064L19.6006 13.2717L21.9353 13.5828" stroke="#171321" stroke-width="1.27982" stroke-linecap="round" stroke-linejoin="round"/>
<path d="M19.6006 13.2717L22.1758 15.8437" stroke="#171321" stroke-width="1.27982" stroke-linecap="round" stroke-linejoin="round"/>
<path d="M13.7021 7.51587H25.2045" stroke="#171321" stroke-width="1.27982" stroke-linecap="round" stroke-linejoin="round"/>
</g>
<defs>
<clipPath id="clip0_1145_6808">
<rect width="31.9954" height="31.9954" fill="white"/>
</clipPath>
</defs>
</svg>
