<svg width="32" height="24" viewBox="0 0 32 24" fill="none" xmlns="http://www.w3.org/2000/svg">
<g clip-path="url(#clip0_748_5947)">
<path d="M23.3883 18.5703H8.6107C8.44096 18.5703 8.27818 18.5029 8.15815 18.3828C8.03813 18.2628 7.9707 18.1 7.9707 17.9303C7.9707 17.7605 8.03813 17.5978 8.15815 17.4777C8.27818 17.3577 8.44096 17.2903 8.6107 17.2903H23.3883C23.558 17.2903 23.7208 17.3577 23.8408 17.4777C23.9609 17.5978 24.0283 17.7605 24.0283 17.9303C24.0283 18.1 23.9609 18.2628 23.8408 18.3828C23.7208 18.5029 23.558 18.5703 23.3883 18.5703Z" fill="#171321"/>
<path d="M4.62765 22.5552C3.71234 22.5558 2.81741 22.285 2.05605 21.7769C1.29469 21.2689 0.701112 20.5464 0.350399 19.701C-0.000313302 18.8555 -0.0924039 17.925 0.085776 17.0272C0.263956 16.1294 0.704401 15.3046 1.3514 14.6572C1.9984 14.0097 2.82288 13.5687 3.72055 13.3899C4.61823 13.2111 5.54877 13.3026 6.39447 13.6527C7.24016 14.0028 7.96302 14.5959 8.47161 15.3569C8.98019 16.1179 9.25165 17.0127 9.25165 17.928C9.25081 19.1544 8.76347 20.3303 7.89657 21.1978C7.02968 22.0653 5.85405 22.5535 4.62765 22.5552ZM4.62765 14.584C3.96537 14.5833 3.31778 14.7792 2.76685 15.1468C2.21591 15.5143 1.7864 16.037 1.53266 16.6488C1.27892 17.2605 1.21237 17.9338 1.34142 18.5834C1.47047 19.233 1.78932 19.8297 2.25763 20.298C2.72594 20.7663 3.32264 21.0852 3.97223 21.2142C4.62182 21.3433 5.2951 21.2767 5.90685 21.023C6.5186 20.7692 7.04133 20.3397 7.40888 19.7888C7.77643 19.2379 7.97229 18.5903 7.97165 17.928C7.96996 17.0416 7.61711 16.192 6.99035 15.5653C6.3636 14.9385 5.51402 14.5857 4.62765 14.584Z" fill="#171321"/>
<path d="M4.06139 19.549C3.89193 19.5483 3.72966 19.4804 3.61019 19.3602L2.79099 18.541C2.72664 18.4829 2.67477 18.4124 2.63852 18.3336C2.60227 18.2549 2.5824 18.1696 2.58012 18.0829C2.57783 17.9962 2.59318 17.91 2.62522 17.8294C2.65727 17.7489 2.70535 17.6757 2.76655 17.6143C2.82774 17.5529 2.90078 17.5045 2.98122 17.4722C3.06166 17.4399 3.14783 17.4242 3.23451 17.4262C3.32118 17.4282 3.40655 17.4477 3.48543 17.4837C3.56431 17.5197 3.63506 17.5713 3.69339 17.6354L4.06139 18.013L5.55899 16.5154C5.67908 16.3953 5.84196 16.3279 6.01179 16.3279C6.18162 16.3279 6.3445 16.3953 6.46459 16.5154C6.58468 16.6355 6.65215 16.7984 6.65215 16.9682C6.65215 17.1381 6.58468 17.3009 6.46459 17.421L4.51259 19.3698C4.39156 19.4865 4.22949 19.5509 4.06139 19.549Z" fill="#171321"/>
<path d="M27.3731 22.5552C26.4579 22.5552 25.5633 22.2838 24.8024 21.7754C24.0414 21.2669 23.4484 20.5442 23.0981 19.6987C22.7479 18.8532 22.6563 17.9229 22.8348 17.0253C23.0134 16.1277 23.4541 15.3032 24.1012 14.6561C24.7483 14.0089 25.5728 13.5682 26.4704 13.3897C27.368 13.2112 28.2984 13.3028 29.1439 13.653C29.9894 14.0032 30.712 14.5963 31.2205 15.3572C31.7289 16.1182 32.0003 17.0128 32.0003 17.928C31.9995 19.1549 31.5117 20.3314 30.6441 21.199C29.7765 22.0666 28.6001 22.5543 27.3731 22.5552ZM27.3731 14.584C26.711 14.584 26.0637 14.7804 25.5132 15.1483C24.9627 15.5162 24.5336 16.0392 24.2804 16.651C24.0272 17.2628 23.9611 17.936 24.0905 18.5854C24.2199 19.2347 24.539 19.8312 25.0074 20.2991C25.4759 20.7671 26.0726 21.0857 26.7221 21.2145C27.3716 21.3432 28.0447 21.2765 28.6563 21.0227C29.2678 20.7688 29.7904 20.3393 30.1578 19.7885C30.5252 19.2376 30.7209 18.5901 30.7203 17.928C30.7195 17.0408 30.3664 16.1903 29.7388 15.5632C29.1112 14.9362 28.2603 14.584 27.3731 14.584Z" fill="#171321"/>
<path d="M26.8102 19.5455C26.7257 19.5456 26.6421 19.5289 26.5641 19.4965C26.4861 19.4641 26.4153 19.4166 26.3558 19.3567L25.5366 18.5375C25.4165 18.4174 25.349 18.2545 25.349 18.0847C25.349 17.9149 25.4165 17.752 25.5366 17.6319C25.6566 17.5118 25.8195 17.4444 25.9894 17.4444C26.1592 17.4444 26.3221 17.5118 26.4422 17.6319L26.8102 18.0095L28.3078 16.5119C28.4297 16.4018 28.5893 16.3428 28.7535 16.3471C28.9178 16.3515 29.074 16.4188 29.19 16.5352C29.306 16.6516 29.3727 16.8081 29.3765 16.9723C29.3802 17.1366 29.3207 17.296 29.2102 17.4175L27.2614 19.3663C27.1403 19.483 26.9783 19.5474 26.8102 19.5455Z" fill="#171321"/>
<path d="M16.0009 22.5552C15.0857 22.5552 14.1911 22.2838 13.4301 21.7754C12.6692 21.2669 12.0761 20.5442 11.7259 19.6987C11.3757 18.8532 11.284 17.9229 11.4626 17.0253C11.6411 16.1277 12.0818 15.3032 12.7289 14.6561C13.3761 14.0089 14.2005 13.5682 15.0981 13.3897C15.9957 13.2112 16.9261 13.3028 17.7716 13.653C18.6171 14.0032 19.3398 14.5963 19.8482 15.3572C20.3567 16.1182 20.6281 17.0128 20.6281 17.928C20.6264 19.1547 20.1383 20.3306 19.2709 21.198C18.4035 22.0654 17.2276 22.5535 16.0009 22.5552ZM16.0009 14.584C15.3387 14.584 14.6914 14.7804 14.1409 15.1483C13.5904 15.5162 13.1614 16.0392 12.9081 16.651C12.6549 17.2628 12.5888 17.936 12.7182 18.5854C12.8476 19.2347 13.1667 19.8312 13.6352 20.2991C14.1036 20.7671 14.7003 21.0857 15.3498 21.2145C15.9993 21.3432 16.6724 21.2765 17.284 21.0227C17.8956 20.7688 18.4181 20.3393 18.7855 19.7885C19.1529 19.2376 19.3487 18.5901 19.3481 17.928C19.3464 17.0411 18.9931 16.191 18.3656 15.5642C17.7382 14.9373 16.8878 14.5848 16.0009 14.584Z" fill="#171321"/>
<path d="M15.4347 19.549C15.2652 19.5483 15.103 19.4804 14.9835 19.3602L14.1643 18.541C14.1048 18.4816 14.0577 18.411 14.0255 18.3333C13.9933 18.2556 13.9767 18.1723 13.9767 18.0882C13.9767 18.0041 13.9933 17.9209 14.0255 17.8432C14.0577 17.7655 14.1048 17.6949 14.1643 17.6354C14.2238 17.576 14.2944 17.5288 14.372 17.4966C14.4497 17.4644 14.533 17.4479 14.6171 17.4479C14.7012 17.4479 14.7845 17.4644 14.8622 17.4966C14.9398 17.5288 15.0104 17.576 15.0699 17.6354L15.4347 18.013L16.9323 16.5154C17.0524 16.3953 17.2153 16.3279 17.3851 16.3279C17.5549 16.3279 17.7178 16.3953 17.8379 16.5154C17.958 16.6355 18.0255 16.7984 18.0255 16.9682C18.0255 17.1381 17.958 17.3009 17.8379 17.421L15.8891 19.3698C15.7673 19.4873 15.6039 19.5517 15.4347 19.549Z" fill="#171321"/>
<path d="M15.8711 10.6995C15.7352 10.6991 15.603 10.6554 15.4935 10.5747L11.2919 7.47713C11.1279 7.35531 11.006 7.18522 10.9435 6.99069C10.8809 6.79616 10.8808 6.58693 10.9431 6.39232L12.3895 1.87073C12.4407 1.70753 12.5426 1.56493 12.6805 1.46369C12.8183 1.36245 12.9849 1.30786 13.1559 1.30786C13.327 1.30786 13.4935 1.36245 13.6314 1.46369C13.7692 1.56493 13.8712 1.70753 13.9223 1.87073L14.7447 4.43073H17.0007L17.8199 1.87073C17.8714 1.70885 17.9728 1.56744 18.1096 1.46682C18.2465 1.3662 18.4117 1.31155 18.5815 1.31073C18.7508 1.31188 18.9154 1.36585 19.0526 1.4651C19.1897 1.56434 19.2924 1.70391 19.3463 1.86433L20.7991 6.39232C20.8615 6.58693 20.8613 6.79616 20.7988 6.99069C20.7362 7.18522 20.6144 7.35531 20.4503 7.47713L16.2519 10.5747C16.1416 10.656 16.0082 10.6998 15.8711 10.6995ZM12.2263 6.57793L15.8711 9.26272L19.5191 6.57793L18.5911 3.67233L18.0823 5.27233C18.0409 5.40176 17.9593 5.51463 17.8494 5.5946C17.7395 5.67457 17.607 5.71748 17.4711 5.71712H14.2711C14.1352 5.71748 14.0027 5.67457 13.8928 5.5946C13.783 5.51463 13.7014 5.40176 13.6599 5.27233L13.1511 3.67233L12.2263 6.57793Z" fill="#171321"/>
</g>
<defs>
<clipPath id="clip0_748_5947">
<rect width="32" height="22.4" fill="white" transform="translate(0 0.730957)"/>
</clipPath>
</defs>
</svg>
