<svg width="131" height="27" viewBox="0 0 131 27" fill="none" xmlns="http://www.w3.org/2000/svg">
<path d="M96.5107 4.43057C95.9041 4.43057 95.4058 4.22373 94.9726 3.83073C94.5393 3.41705 94.3444 2.94131 94.3444 2.36216C94.3444 1.783 94.561 1.28658 94.9942 0.893579C95.4275 0.50058 95.9258 0.293739 96.5323 0.293739C97.1172 0.293739 97.6155 0.50058 98.0271 0.893579C98.4603 1.30726 98.677 1.783 98.677 2.34147C98.677 2.89994 98.4603 3.39636 98.0487 3.81005C97.6371 4.24442 97.1172 4.43057 96.5107 4.43057ZM42.8946 19.0129L37.2622 0.500581H29.6152V1.70026H30.3517C30.9366 1.70026 31.3915 1.74163 31.6948 1.84505C32.2147 2.01053 32.5613 2.38284 32.713 2.98268C32.7996 3.25158 32.8213 3.83073 32.8213 4.69947V19.3025C32.8213 20.6676 32.778 21.6398 32.6913 22.1983C32.5613 22.9429 32.2797 23.5014 31.8464 23.8737C31.3915 24.2667 30.8499 24.4528 30.2434 24.4528H29.6152V25.6732H37.7821V24.4528H37.2622C35.8324 24.4528 34.9226 23.791 34.5327 22.4879C34.4027 22.0121 34.3377 20.9365 34.3377 19.3025V2.77584L41.2915 25.6732H42.5047L49.4802 2.77584V20.7504C49.4802 21.5984 49.4368 22.3017 49.3719 22.8395C49.3285 23.2945 49.1552 23.6462 48.8953 23.8944C48.4837 24.2667 47.7905 24.4735 46.7939 24.4735H46.469V25.6939H56.3907V24.4735H55.8491C54.4843 24.4735 53.6611 24.0805 53.3795 23.3152C53.2279 22.9015 53.1629 22.0535 53.1629 20.7711V5.4441C53.1629 4.59605 53.2062 3.89279 53.2712 3.33432C53.3145 2.89995 53.4878 2.54832 53.7478 2.30011C54.1377 1.90711 54.8526 1.72095 55.8274 1.72095H56.369V0.500581H48.657L42.8946 19.0129ZM64.8176 7.76073C67.2872 7.76073 69.2802 8.69151 70.8183 10.5531C72.1614 12.1665 72.8329 14.3176 72.8329 16.9445C72.8329 19.6334 72.1614 21.7846 70.8183 23.4186C69.3019 25.2802 67.2655 26.211 64.7093 26.211C62.3047 26.211 60.3334 25.2802 58.8169 23.4186C57.4738 21.7846 56.8023 19.6334 56.8023 16.9859C56.8023 14.3176 57.4738 12.1665 58.8169 10.5531C60.3334 8.69151 62.3264 7.76073 64.8176 7.76073ZM64.8176 24.9906C67.5905 24.9906 68.9769 22.3017 68.9769 16.9031C68.9769 14.421 68.6736 12.5388 68.0671 11.2357C67.6988 10.429 67.1356 9.82914 66.4207 9.39477C65.9224 9.1052 65.4025 8.96041 64.8176 8.96041C63.9078 8.96041 63.1062 9.31204 62.413 10.0153C61.2432 11.1736 60.6583 13.4282 60.6583 16.779C60.6583 19.5507 61.0266 21.6605 61.7415 23.0877C62.3697 24.3701 63.3879 24.9906 64.8176 24.9906ZM84.1194 7.9262C86.0257 7.9262 87.5855 8.56741 88.8203 9.87051C90.4017 11.5459 91.2032 13.8212 91.2032 16.6756C91.2032 19.4059 90.4883 21.6605 89.0802 23.5014C87.7588 25.2182 86.0041 26.0662 83.8378 26.0662C82.668 26.0662 81.5848 25.756 80.61 25.1561C80.3934 25.032 79.9601 24.7011 79.2885 24.184C79.0286 23.9771 78.8119 23.8944 78.617 23.8944C78.3787 23.8944 78.1187 24.0805 77.8371 24.4735C77.5772 24.8252 77.2955 25.2182 77.0139 25.6732H75.6925C75.8224 25.3216 75.8874 25.0941 75.9091 25.032C76.0174 24.5356 76.0824 23.5014 76.0824 21.9501V4.6581C76.0824 3.29295 75.9308 2.44489 75.6058 2.11394C75.3459 1.80368 74.8259 1.6589 74.0677 1.6589H73.7861V0.500581L79.4185 0.252369V10.7599C79.7435 10.036 80.1767 9.47751 80.7183 9.06383C81.6931 8.29851 82.8196 7.9262 84.1194 7.9262ZM83.4045 24.7424C86.0257 24.7424 87.3255 22.0742 87.3255 16.7583C87.3255 14.3176 87.0006 12.4353 86.3507 11.1116C85.7225 9.89119 84.8126 9.27067 83.5778 9.27067C82.7113 9.27067 81.9098 9.58093 81.1516 10.2221C79.7651 11.4425 79.0719 13.635 79.0719 16.8204C79.0719 19.2818 79.3968 21.1848 80.0467 22.5292C80.3933 23.2325 80.8916 23.8116 81.5632 24.2253C82.1264 24.5563 82.733 24.7424 83.4045 24.7424ZM124.001 23.1911C124.499 22.6326 124.998 21.8466 125.518 20.8538L126.687 21.4536C125.019 24.639 122.788 26.2317 119.972 26.2317C117.892 26.2317 116.202 25.5491 114.859 24.2046C113.213 22.5292 112.39 20.0885 112.39 16.9031C112.39 13.9867 113.213 11.6287 114.859 9.87051C116.159 8.48467 117.719 7.78141 119.56 7.78141C122.268 7.78141 124.326 9.08451 125.691 11.6907C126.427 13.0766 126.839 14.814 126.904 16.8824H116.094C116.116 19.3232 116.376 21.1227 116.896 22.281C117.61 23.9357 118.845 24.7631 120.6 24.7631C121.943 24.7424 123.07 24.2253 124.001 23.1911ZM116.506 12.3319C116.246 13.2007 116.116 14.2762 116.094 15.5173H123.221C123.221 13.9867 123.048 12.7042 122.701 11.7114C122.073 9.95325 121.077 9.06383 119.733 9.06383C118.217 9.08451 117.134 10.1808 116.506 12.3319ZM108.989 24.0599C108.664 23.7082 108.512 22.8395 108.512 21.4536V0.231689L102.706 0.479896V1.63821H103.14C103.876 1.63821 104.396 1.783 104.656 2.09326C104.981 2.4449 105.133 3.29295 105.133 4.6581V21.433C105.133 22.8188 104.981 23.6669 104.656 24.0392C104.374 24.3494 103.876 24.4942 103.14 24.4942H102.511V25.6525H111.155V24.4942H110.527C109.79 24.5149 109.27 24.3494 108.989 24.0599ZM98.9586 24.0599C98.6336 23.7082 98.482 22.8395 98.482 21.4536V8.02962L92.6763 8.27783V9.45683H93.1312C93.8678 9.45683 94.3877 9.60162 94.6693 9.89119C94.9942 10.2428 95.1459 11.0909 95.1459 12.456V21.433C95.1459 22.8188 94.9942 23.6669 94.6693 24.0392C94.3877 24.3494 93.8894 24.4942 93.1312 24.4942H92.503V25.6525H101.147V24.4942H100.518C99.7385 24.5149 99.2402 24.3494 98.9586 24.0599ZM16.7906 12.0837V17.1927H22.1414V12.0837H19.3685H16.7906ZM0.78162 0.500581L0.521663 9.39477L1.92976 9.6223C2.18972 6.99541 2.9046 5.0511 4.09607 3.78936C5.33086 2.46558 7.04224 1.76231 9.23021 1.72095V20.316C9.23021 21.9501 8.99192 22.9843 8.49367 23.4807C8.08207 23.8944 7.36719 24.1426 6.34903 24.246C6.04574 24.2667 5.54749 24.2874 4.83261 24.2874V25.7146H17.8521V24.2874C17.1372 24.2874 16.6173 24.2667 16.3357 24.246C15.3392 24.1426 14.6243 23.8944 14.1911 23.4807C13.6928 22.9843 13.4545 21.9501 13.4545 20.316V1.72095C15.6425 1.783 17.3539 2.46558 18.6103 3.78936C19.7801 5.0511 20.5167 6.99541 20.7766 9.6223L22.1847 9.39477L21.9248 0.500581H0.78162ZM5.85078 12.0837H3.20788H0.5V17.1927H5.85078V12.0837ZM127.792 9.78777V8.02962H128.377V7.76073H126.904V8.02962H127.489V9.78777H127.792ZM128.919 9.78777V8.21577L129.417 9.78777H129.742L130.218 8.1951V9.78777H130.5V7.76073H130.088L129.568 9.39477L129.049 7.76073H128.637V9.78777H128.919Z" fill="#171321"/>
</svg>
